Arquitetura 1/Exercicio_Semana13/Guia_013/2024-2_ARQ1_1658100_T1_(M)_G13_11-03a/2024-2_ARQ1_1658100_T1_(M)_G13_11-03/11-04/855842_Mateus_Resende_Ottoni/Guia_1305.vcd
$date
	Sun Nov 03 22:56:27 2024
$end
$version
	Icarus Verilog
$end
$timescale
	1s
$end
$scope module Guia_1305 $end
$var reg 1 ! value $end
$upscope $end
$scope module Guia_1305 $end
$var wire 1 " pulso $end
$upscope $end
$scope module Guia_1305 $end
$var wire 7 # result [6:0] $end
$upscope $end
$scope module Guia_1305 $end
$var reg 1 $ clear $end
$upscope $end
$enddefinitions $end
$comment Show the parameter values. $end
$dumpall
$end
#0
$dumpvars
1$
b0 #
0"
1!
$end
#5
0$
#6
b1 #
1"
#12
0"
#18
b10 #
1"
#24
0"
#30
b11 #
1"
#36
0"
#42
b100 #
1"
#48
0"
#54
b101 #
1"
#60
0"
#66
b110 #
1"
#72
0"
#78
b111 #
1"
#84
0"
#90
b1000 #
1"
#96
0"
#102
b1001 #
1"
#108
0"
#114
b1010 #
1"
#120
0"
#126
b1011 #
1"
#132
0"
#138
b1100 #
1"
#144
0"
#150
b1101 #
1"
#156
0"
#162
b1110 #
1"
#168
0"
#174
b1111 #
1"
#180
0"
#186
b10000 #
1"
#192
0"
#198
b10001 #
1"
#204
0"
#210
b10010 #
1"
#216
0"
#222
b10011 #
1"
#228
0"
#234
b10100 #
1"
#240
0"
#246
b10101 #
1"
#252
0"
#258
b10110 #
1"
#264
0"
#270
b10111 #
1"
#276
0"
#282
b11000 #
1"
#288
0"
#294
b11001 #
1"
#300
0"
#306
b11010 #
1"
#312
0"
#318
b11011 #
1"
#324
0"
#330
b11100 #
1"
#336
0"
#342
b11101 #
1"
#348
0"
#354
b11110 #
1"
#360
0"
#366
b11111 #
1"
#372
0"
#378
b100000 #
1"
#384
0"
#390
b100001 #
1"
#396
0"
#402
b100010 #
1"
#408
0"
#414
b100011 #
1"
#420
0"
#426
b100100 #
1"
#432
0"
#438
b100101 #
1"
#444
0"
#450
b100110 #
1"
#456
0"
#462
b100111 #
1"
#468
0"
#474
b101000 #
1"
#480
0"
#486
b101001 #
1"
#492
0"
#498
b101010 #
1"
#504
0"
#510
b101011 #
1"
#516
0"
#522
b101100 #
1"
#528
0"
#534
b101101 #
1"
#540
0"
#546
b101110 #
1"
#552
0"
#558
b101111 #
1"
#564
0"
#570
b110000 #
1"
#576
0"
#582
b110001 #
1"
#588
0"
#594
b110010 #
1"
#600
0"
#606
b110011 #
1"
#612
0"
#618
b110100 #
1"
#624
0"
#630
b110101 #
1"
#636
0"
#642
b110110 #
1"
#648
0"
#654
b110111 #
1"
#660
0"
#666
b111000 #
1"
#672
0"
#678
b111001 #
1"
#684
0"
#690
b111010 #
1"
#696
0"
#702
b111011 #
1"
#708
0"
#714
b111100 #
1"
#720
0"
#726
b111101 #
1"
#732
0"
#738
b111110 #
1"
