Arquitetura 1/Exercicio_Semana13/Guia_013/2024-2_ARQ1_1658100_T1_(M)_G13_11-03a/2024-2_ARQ1_1658100_T1_(M)_G13_11-03/11-04/855842_Mateus_Resende_Ottoni/Guia_1303.vcd
$date
	Sun Nov 03 21:34:33 2024
$end
$version
	Icarus Verilog
$end
$timescale
	1s
$end
$scope module Guia_1303 $end
$var reg 1 ! value $end
$upscope $end
$scope module Guia_1303 $end
$var wire 1 " pulso $end
$upscope $end
$scope module Guia_1303 $end
$var wire 4 # result [3:0] $end
$upscope $end
$scope module Guia_1303 $end
$var reg 1 $ clear $end
$upscope $end
$enddefinitions $end
$comment Show the parameter values. $end
$dumpall
$end
#0
$dumpvars
1$
b0 #
0"
1!
$end
#5
0$
#6
1"
#12
0"
#18
b1 #
1"
#24
0"
#30
b10 #
1"
#36
0"
#42
b11 #
1"
#48
0"
#54
b100 #
1"
#60
0"
#66
b101 #
1"
#72
0"
#78
b110 #
1"
#84
0"
#90
b111 #
1"
#96
0"
#102
b1000 #
1"
#108
0"
#114
b1001 #
1"
#120
0"
#126
b0 #
1"
#132
0"
#138
b1 #
1"
#144
0"
#150
b10 #
1"
#156
0"
#162
b11 #
1"
#168
0"
#174
b100 #
1"
#180
0"
#186
b101 #
1"
#192
0"
#198
b110 #
1"
#204
0"
#210
b111 #
1"
#216
0"
#222
b1000 #
1"
#228
0"
#234
b1001 #
1"
#240
0"
#246
b0 #
1"
#252
0"
#258
b1 #
1"
#264
0"
#270
b10 #
1"
#276
0"
#282
b11 #
1"
#288
0"
#294
b100 #
1"
#300
0"
#306
b101 #
1"
#312
0"
#318
b110 #
1"
#324
0"
#330
b111 #
1"
#336
0"
#342
b1000 #
1"
#348
0"
#354
b1001 #
1"
#360
0"
#366
b0 #
1"
#372
0"
#378
b1 #
1"
#384
0"
#390
b10 #
1"
