Arquitetura 1/Exercicio_Semana12/Guia_012/2024-2_ARQ1_1658100_T1_(M)_G12_10-27a/2024-2_ARQ1_1658100_T1_(M)_G12_10-27/10-28/855842_Mateus_Resende_Ottoni/Guia_1201.vcd
$date
	Sun Oct 27 20:41:05 2024
$end
$version
	Icarus Verilog
$end
$timescale
	1s
$end
$scope module Guia_1201 $end
$var wire 1 ! clock $end
$upscope $end
$scope module Guia_1201 $end
$var wire 4 " result [3:0] $end
$upscope $end
$scope module Guia_1201 $end
$var reg 1 # address $end
$upscope $end
$scope module Guia_1201 $end
$var reg 4 $ value [3:0] $end
$upscope $end
$scope module Guia_1201 $end
$var reg 1 % read_write $end
$upscope $end
$scope module Guia_1201 $end
$var reg 1 & clear $end
$upscope $end
$enddefinitions $end
$comment Show the parameter values. $end
$dumpall
$end
#0
$dumpvars
0&
0%
b0 $
0#
b0 "
0!
$end
#3
bx0 "
1%
b1 $
1#
#6
bx "
1!
#12
b1 "
0!
#15
0%
b0 $
#18
1!
#24
0!
#27
1%
b10 $
#30
1!
#36
b10 "
0!
#39
0%
b0 $
#42
1!
#48
0!
#51
1%
b11 $
#54
1!
#60
b11 "
0!
#63
0%
b0 $
#66
1!
#72
0!
#75
1%
b100 $
#78
1!
#84
b100 "
0!
#87
0%
b0 $
#90
1!
#96
0!
#99
1%
b101 $
#102
1!
#108
b101 "
0!
#111
0%
b0 $
#114
1!
#120
0!
#123
1%
b110 $
#126
1!
#132
b110 "
0!
#135
0%
b0 $
#138
1!
#144
0!
#147
1%
b111 $
#150
1!
#156
b111 "
0!
#159
0%
b0 $
#162
1!
#168
0!
#171
1%
b1111 $
#174
1!
#180
b1111 "
0!
#183
0%
b0 $
#186
1!
#192
0!
#195
1%
b1001 $
#198
1!
#204
b1001 "
0!
#207
0%
b0 $
#210
1!
#216
0!
#219
1%
b1010 $
#222
1!
#228
b1010 "
0!
#231
0%
b0 $
#234
1!
#240
0!
#243
1%
b1011 $
#246
1!
#252
b1011 "
0!
#255
0%
b0 $
#258
1!
#264
0!
#267
1%
b1100 $
#270
1!
#276
b1100 "
0!
#279
0%
b0 $
#282
1!
#288
0!
#291
1%
b1101 $
#294
1!
#300
b1101 "
0!
#303
0%
b0 $
#306
1!
#312
0!
#315
1%
b1110 $
#318
1!
#324
b1110 "
0!
#327
0%
b0 $
#330
1!
#336
0!
#339
1%
b1111 $
#342
1!
#348
b1111 "
0!
#351
0%
b0 $
