Arquitetura 1/Exercicio_Semana12/Guia_012/2024-2_ARQ1_1658100_T1_(M)_G12_10-27a/2024-2_ARQ1_1658100_T1_(M)_G12_10-27/10-28/855842_Mateus_Resende_Ottoni/Guia_1203.vcd
$date
	Sun Oct 27 22:49:53 2024
$end
$version
	Icarus Verilog
$end
$timescale
	1s
$end
$scope module Guia_1203 $end
$var wire 1 ! clock $end
$upscope $end
$scope module Guia_1203 $end
$var wire 8 " result [7:0] $end
$upscope $end
$scope module Guia_1203 $end
$var reg 1 # address $end
$upscope $end
$scope module Guia_1203 $end
$var reg 8 $ value [7:0] $end
$upscope $end
$scope module Guia_1203 $end
$var reg 1 % read_write $end
$upscope $end
$scope module Guia_1203 $end
$var reg 1 & clear $end
$upscope $end
$enddefinitions $end
$comment Show the parameter values. $end
$dumpall
$end
#0
$dumpvars
0&
0%
b0 $
0#
b0 "
0!
$end
#3
bx0 "
1%
b1 $
#6
bx "
1!
#12
0!
#15
b0 "
b10000000 $
1#
#18
bx0 "
1!
#24
bx "
0!
#27
b0 "
0%
b0 $
0#
#30
1!
#36
b1 "
0!
#39
b0 "
1#
#42
b10000000 "
1!
#48
0!
#51
b0 "
1%
b10 $
0#
#54
1!
#60
b1 "
0!
#63
b0 "
b1000000 $
1#
#66
b10000000 "
1!
#72
0!
#75
b0 "
0%
b0 $
0#
#78
1!
#84
b10 "
0!
#87
b0 "
1#
#90
b1000000 "
1!
#96
0!
#99
b0 "
1%
b100 $
0#
#102
1!
#108
b10 "
0!
#111
b0 "
b100000 $
1#
#114
b1000000 "
1!
#120
0!
#123
b0 "
0%
b0 $
0#
#126
1!
#132
b100 "
0!
#135
b0 "
1#
#138
b100000 "
1!
#144
0!
#147
b0 "
1%
b1000 $
0#
#150
1!
#156
b100 "
0!
#159
b0 "
b10000 $
1#
#162
b100000 "
1!
#168
0!
#171
b0 "
0%
b0 $
0#
#174
1!
#180
b1000 "
0!
#183
b0 "
1#
#186
b10000 "
1!
#192
0!
#195
b0 "
1%
b10000 $
0#
#198
1!
#204
b1000 "
0!
#207
b0 "
b1000 $
1#
#210
b10000 "
1!
#216
0!
#219
b0 "
0%
b0 $
0#
#222
1!
#228
b10000 "
0!
#231
b0 "
1#
#234
b1000 "
1!
