Arquitetura 1/Exercicio_Semana14/Guia_014/2024-2_ARQ1_1658100_T1_(M)_G14_11-10a/2024-2_ARQ1_1658100_T1_(M)_G14_11-10/11-11/855842_Mateus_Resende_Ottoni/Guia_1405.vcd
$date
	Sun Nov 10 17:40:23 2024
$end
$version
	Icarus Verilog
$end
$timescale
	1s
$end
$scope module Guia_1405 $end
$var reg 1 ! data $end
$upscope $end
$scope module Guia_1405 $end
$var reg 1 " clear $end
$upscope $end
$scope module Guia_1405 $end
$var wire 1 # clock $end
$upscope $end
$scope module Guia_1405 $end
$var wire 6 $ result [5:0] $end
$upscope $end
$scope module Guia_1405 $end
$var reg 1 % load $end
$upscope $end
$enddefinitions $end
$comment Show the parameter values. $end
$dumpall
$end
#0
$dumpvars
0%
b0 $
0#
1"
0!
$end
#3
1!
#4
0"
#6
1#
#12
0#
#18
b1 $
1#
#24
0#
#27
0!
#30
b11 $
1#
#36
0#
#42
b110 $
1#
#48
0#
#54
b1100 $
1#
#60
0#
#66
b11000 $
1#
#72
0#
#78
b110000 $
1#
#84
0#
#90
b100000 $
1#
#96
0#
#99
1%
#101
0%
#102
b10101 $
1#
#108
0#
#114
b101010 $
1#
#120
0#
#126
b10100 $
1#
#132
0#
#138
b101000 $
1#
#144
0#
#150
b10000 $
1#
#156
0#
#162
b100000 $
1#
#168
0#
#174
b0 $
1#
#180
0#
#183
1%
#185
0%
#186
b101010 $
1#
#192
0#
#198
b10100 $
1#
#204
0#
#210
b101000 $
1#
#216
0#
#222
b10000 $
1#
#228
0#
#234
b100000 $
1#
#240
0#
#246
b0 $
1#
