Arquitetura 1/Exercicio_Semana14/Guia_014/2024-2_ARQ1_1658100_T1_(M)_G14_11-10a/2024-2_ARQ1_1658100_T1_(M)_G14_11-10/11-11/855842_Mateus_Resende_Ottoni/Guia_1403.vcd
$date
	Sun Nov 10 16:57:22 2024
$end
$version
	Icarus Verilog
$end
$timescale
	1s
$end
$scope module Guia_1403 $end
$var reg 1 ! clear $end
$upscope $end
$scope module Guia_1403 $end
$var wire 1 " clock $end
$upscope $end
$scope module Guia_1403 $end
$var wire 6 # result [5:0] $end
$upscope $end
$enddefinitions $end
$comment Show the parameter values. $end
$dumpall
$end
#0
$dumpvars
b0 #
0"
1!
$end
#4
0!
#6
b1 #
1"
#12
0"
#18
b10 #
1"
#24
0"
#30
b100 #
1"
#36
0"
#42
b1000 #
1"
#48
0"
#54
b10000 #
1"
#60
0"
#66
b100000 #
1"
#72
0"
#78
b1 #
1"
#84
0"
#90
b10 #
1"
#96
0"
#102
b100 #
1"
#108
0"
#114
b1000 #
1"
#120
0"
#126
b10000 #
1"
#132
0"
#138
b100000 #
1"
