Arquitetura 1/Exercicio_Semana14/Guia_014/2024-2_ARQ1_1658100_T1_(M)_G14_11-10a/2024-2_ARQ1_1658100_T1_(M)_G14_11-10/11-11/855842_Mateus_Resende_Ottoni/Guia_1404.vcd
$date
	Sun Nov 10 17:12:12 2024
$end
$version
	Icarus Verilog
$end
$timescale
	1s
$end
$scope module Guia_1404 $end
$var reg 1 ! data $end
$upscope $end
$scope module Guia_1404 $end
$var reg 1 " clear $end
$upscope $end
$scope module Guia_1404 $end
$var wire 1 # clock $end
$upscope $end
$scope module Guia_1404 $end
$var wire 6 $ result [5:0] $end
$upscope $end
$enddefinitions $end
$comment Show the parameter values. $end
$dumpall
$end
#0
$dumpvars
b0 $
0#
1"
0!
$end
#4
0"
#6
1#
#12
0#
#15
1!
#18
1#
#24
0#
#27
0!
#30
b1 $
1#
#36
0#
#42
b10 $
1#
#48
0#
#51
1!
#54
b100 $
1#
#60
0#
#63
0!
#66
b1001 $
1#
#72
0#
#78
b10010 $
1#
#84
0#
#90
b100100 $
1#
#96
0#
#102
b1001 $
1#
#108
0#
#114
b10010 $
1#
#120
0#
#126
b100100 $
1#
#132
0#
#138
b1001 $
1#
#144
0#
#150
b10010 $
1#
#156
0#
#162
b100100 $
1#
#168
0#
#174
b1001 $
1#
